newmtl Car2:palette
illum 4
Kd 0.00 0.00 0.00
Ka 0.00 0.00 0.00
Tf 1.00 1.00 1.00
map_Kd Car2.png
Ni 1.00
Ks 0.00 0.00 0.00
Ns 0.06
newmtl broom:palette
illum 4
Kd 0.00 0.00 0.00
Ka 0.00 0.00 0.00
Tf 1.00 1.00 1.00
map_Kd broom.png
Ni 1.00
Ks 0.00 0.00 0.00
Ns 0.06
newmtl car:palette
illum 4
Kd 0.00 0.00 0.00
Ka 0.00 0.00 0.00
Tf 1.00 1.00 1.00
map_Kd car.png
Ni 1.00
Ks 0.00 0.00 0.00
Ns 0.06
newmtl car3:palette
illum 4
Kd 0.00 0.00 0.00
Ka 0.00 0.00 0.00
Tf 1.00 1.00 1.00
map_Kd car3.png
Ni 1.00
Ks 0.00 0.00 0.00
Ns 0.06
