newmtl Quit_button_pressed:palette
illum 4
Kd 0.00 0.00 0.00
Ka 0.00 0.00 0.00
Tf 1.00 1.00 1.00
map_Kd pressedbuttons.png
Ni 1.00
Ks 0.00 0.00 0.00
Ns 0.06
newmtl buttons:palette
illum 4
Kd 0.00 0.00 0.00
Ka 0.00 0.00 0.00
Tf 1.00 1.00 1.00
map_Kd buttons.png
Ni 1.00
Ks 0.00 0.00 0.00
Ns 0.06
newmtl pressedbuttons:palette
illum 4
Kd 0.00 0.00 0.00
Ka 0.00 0.00 0.00
Tf 1.00 1.00 1.00
map_Kd pressedbuttons.png
Ni 1.00
Ks 0.00 0.00 0.00
Ns 0.06
